## Interface: 30300
## Title: Invajter
## Notes: /invajter = menu :)
## Version: 25.6
## Author: Xiledria
## SavedVariables: InvajterSV
Invajter.lua
cache.lua
UIScripts.lua
CommandHandler.lua
BlackListHandler.lua
UserConfig.lua
UI.xml